cardinal fitness — results summaries
…
$cross_by_line
# A tibble: 21 × 10
   contrast line  estimate    SE    df z.ratio p.value ratio ratio.LCL ratio.UCL
   <fct>    <fct>    <dbl> <dbl> <dbl>   <dbl>   <dbl> <dbl>     <dbl>     <dbl>
 1 "WT - F… QA38…  -0.271  0.124   Inf  -2.19  1.84e-1 0.762     0.598     0.972
 2 "WT - M… QA38…  -0.110  0.136   Inf  -0.813 9.27e-1 0.896     0.687     1.17 
 3 "WT - F… QA38…  -0.361  0.139   Inf  -2.60  6.98e-2 0.697     0.531     0.915
 4 "WT - M… QA38…   0.297  0.172   Inf   1.73  4.15e-1 1.35      0.961     1.88 
 5 "Female… QA38…   0.161  0.115   Inf   1.40  6.30e-1 1.17      0.937     1.47 
 6 "Female… QA38…  -0.0894 0.118   Inf  -0.755 9.43e-1 0.914     0.725     1.15 
 7 "Female… QA38…   0.568  0.156   Inf   3.63  2.60e-3 1.77      1.30      2.40 
 8 "Male \… QA38…  -0.250  0.131   Inf  -1.91  3.10e-1 0.778     0.602     1.01 
 9 "Male \… QA38…   0.407  0.166   Inf   2.46  1.00e-1 1.50      1.09      2.08 
10 "Female… QA38…   0.658  0.168   Inf   3.91  8.79e-4 1.93      1.39      2.68 
# ℹ 11 more rows
…
$cross_by_line
# A tibble: 21 × 10
   contrast line  estimate    SE    df z.ratio p.value ratio ratio.LCL ratio.UCL
   <fct>    <fct>    <dbl> <dbl> <dbl>   <dbl>   <dbl> <dbl>     <dbl>     <dbl>
 1 "WT - F… QA38…  -1.51   0.439   Inf -3.43   0.00541 0.222    0.0939     0.524
 2 "WT - M… QA38…  -0.705  0.468   Inf -1.51   0.559   0.494    0.197      1.24 
 3 "WT - F… QA38…  -1.09   0.500   Inf -2.17   0.190   0.338    0.127      0.899
 4 "WT - M… QA38…  -0.655  0.546   Inf -1.20   0.752   0.520    0.178      1.51 
 5 "Female… QA38…   0.800  0.423   Inf  1.89   0.320   2.23     0.973      5.10 
 6 "Female… QA38…   0.421  0.457   Inf  0.921  0.889   1.52     0.622      3.73 
 7 "Female… QA38…   0.851  0.507   Inf  1.68   0.448   2.34     0.867      6.33 
 8 "Male \… QA38…  -0.380  0.486   Inf -0.782  0.936   0.684    0.264      1.77 
 9 "Male \… QA38…   0.0506 0.533   Inf  0.0949 1.000   1.05     0.370      2.99 
10 "Female… QA38…   0.430  0.561   Inf  0.768  0.940   1.54     0.512      4.62 
# ℹ 11 more rows
…
